%YAML 1.1
%TAG !u! tag:unity3d.com,2011:
--- !u!78 &1
TagManager:
  serializedVersion: 2
  tags:
  - ScrollView
  - Content
  - Batter1
  - Batter2
  - Batter3
  - Batter4
  - Batter5
  - Batter6
  - Batter7
  - Batter8
  - Batter9
  - Batter10
  - Batter11
  - Out1
  - Out2
  - Out3
  - Out4
  - Out5
  - Out6
  - Out7
  - Out8
  - Out9
  - Out10
  - Out11
  - Out12
  - Out13
  - Out14
  - Out15
  - Out16
  - Out17
  - Out18
  - Out19
  - Out20
  - Out21
  - Out22
  - Batter12
  - Batter13
  - Batter14
  - Batter15
  - Batter16
  - Batter17
  - Batter18
  - Batter19
  - Batter20
  - Batter21
  - Batter22
  layers:
  - Default
  - TransparentFX
  - Ignore Raycast
  - 
  - Water
  - UI
  - 
  - 
  - 
  - 
  - 
  - 
  - 
  - 
  - 
  - 
  - 
  - 
  - 
  - 
  - 
  - 
  - 
  - 
  - 
  - 
  - 
  - 
  - 
  - 
  - 
  - 
  m_SortingLayers:
  - name: Default
    uniqueID: 0
    locked: 0
